{
    "docs": [{
        "character": "5cd99d4bde30eff6ebccfbe6",
        "dialog": "It has been remade. Fight for us and regain your honour. What say you? What say you?",
        "id": "5cd96e05de30eff6ebcce90f",
        "movie": "5cd95395de30eff6ebccde5d",
        "_id": "5cd96e05de30eff6ebcce90f"
    }],
    "limit": 1000,
    "offset": 0,
    "page": 1,
    "pages": 3,
    "total": 2390
  }